CANAPE example
…
# Switch back to sequential (non-parallel) mode
plan(sequential)

If we hadn’t run it in parallel, it would have taken significantly longer!

Let’s take a peek at the output. cpr_rand_test() produces a lot of columns, so we’ll view this as a tibble, which prints out more nicely than a plain data.frame.

as_tibble(acacia_rand_res, rownames = "site")
#> # A tibble: 3,037 × 55
#>    site    pd_obs pd_rand_mean pd_rand_sd pd_obs_z pd_obs_c_upper pd_obs_c_lower
#>    <chr>    <dbl>        <dbl>      <dbl>    <dbl>          <dbl>          <dbl>
#>  1 '-1025… 0.0145      0.0221     0.00408  -1.87                2             98
#>  2 '-1025… 0.0383      0.0503     0.00783  -1.53                8             92
#>  3 '-1025… 0.0379      0.0368     0.00640   0.171              67             33
#>  4 '-1025… 0.0571      0.0615     0.00865  -0.506              30             70
#>  5 '-1025… 0.0410      0.0420     0.00725  -0.149              49             51
#>  6 '-1025… 0.0100      0.00998    0.00153   0.0147             60             40
#>  7 '-1025… 0.0188      0.0224     0.00439  -0.836              24             76
#>  8 '-1025… 0.0435      0.0556     0.00799  -1.52                5             95
#>  9 '-1025… 0.0111      0.0103     0.00237   0.335              78             22
#> 10 '-1025… 0.0905      0.0875     0.00958   0.316              64             36
#> # … with 3,027 more rows, and 48 more variables: pd_obs_q <dbl>,
#> #   pd_obs_p_upper <dbl>, pd_obs_p_lower <dbl>, pd_alt_obs <dbl>,
#> #   pd_alt_rand_mean <dbl>, pd_alt_rand_sd <dbl>, pd_alt_obs_z <dbl>,
#> #   pd_alt_obs_c_upper <dbl>, pd_alt_obs_c_lower <dbl>, pd_alt_obs_q <dbl>,
#> #   pd_alt_obs_p_upper <dbl>, pd_alt_obs_p_lower <dbl>, rpd_obs <dbl>,
#> #   rpd_rand_mean <dbl>, rpd_rand_sd <dbl>, rpd_obs_z <dbl>,
#> #   rpd_obs_c_upper <dbl>, rpd_obs_c_lower <dbl>, rpd_obs_q <dbl>, …
…
